\relax 
\providecommand\hyper@newdestlabel[2]{}
\@writefile{toc}{\contentsline {chapter}{\numberline {1}Interpolaci\'{o}n Polinomial}{3}{chapter.1}}
\@writefile{lof}{\addvspace {10\p@ }}
\@writefile{lot}{\addvspace {10\p@ }}
\@writefile{toc}{\contentsline {section}{\numberline {1.1}Introducci\'{o}n}{3}{section.1.1}}
\newlabel{intr31}{{1.1}{3}{Introducci\'{o}n}{section.1.1}{}}
\@writefile{toc}{\contentsline {section}{\numberline {1.2}Teor\'{\i }a de interpolaci\'{o}n polin\'{o}mica}{3}{section.1.2}}
\newlabel{sec12}{{1.2}{3}{Teor\'{\i }a de interpolaci\'{o}n polin\'{o}mica}{section.1.2}{}}
\newlabel{pairdiff}{{1.1}{4}{}{equation.1.2.1}{}}
\newlabel{interp}{{1.2.1}{4}{}{theorem.1.2.1}{}}
\@writefile{toc}{\contentsline {section}{\numberline {1.3}Interpolaci\'{o}n de Lagrange}{5}{section.1.3}}
\newlabel{lagrange}{{1.3}{5}{Interpolaci\'{o}n de Lagrange}{section.1.3}{}}
\newlabel{lagrange1}{{1.3}{6}{Interpolaci\'{o}n de Lagrange}{equation.1.3.3}{}}
\newlabel{lagrange2}{{1.4}{6}{Interpolaci\'{o}n de Lagrange}{equation.1.3.4}{}}
\newlabel{coeflagrange}{{1.5}{6}{Interpolaci\'{o}n de Lagrange}{equation.1.3.5}{}}
\newlabel{polilagrange}{{1.6}{6}{Interpolaci\'{o}n de Lagrange}{equation.1.3.6}{}}
\@writefile{toc}{\contentsline {section}{\numberline {1.4}Nodos de interpolaci\'{o}n uniformemente espaciados}{7}{section.1.4}}
\newlabel{ptosespac}{{1.4}{7}{Nodos de interpolaci\'{o}n uniformemente espaciados}{section.1.4}{}}
\newlabel{ptosespa3}{{1.7}{8}{Nodos de interpolaci\'{o}n uniformemente espaciados}{equation.1.4.7}{}}
\newlabel{ptosespa1}{{1.8}{8}{Nodos de interpolaci\'{o}n uniformemente espaciados}{equation.1.4.8}{}}
\newlabel{ptosespa2}{{1.9}{8}{Nodos de interpolaci\'{o}n uniformemente espaciados}{equation.1.4.9}{}}
\@writefile{toc}{\contentsline {section}{\numberline {1.5}An\'{a}lisis del error de interpolaci\'{o}n por polinomios}{8}{section.1.5}}
\newlabel{error}{{1.5}{8}{An\'{a}lisis del error de interpolaci\'{o}n por polinomios}{section.1.5}{}}
\newlabel{graferror}{{1.5.1}{9}{}{example.1.5.1}{}}
\newlabel{error1}{{1.11}{9}{An\'{a}lisis del error de interpolaci\'{o}n por polinomios}{equation.1.5.11}{}}
\newlabel{errorchev}{{1.5.2}{10}{}{theorem.1.5.2}{}}
\@writefile{toc}{\contentsline {section}{\numberline {1.6}F\'{o}rmula de interpolaci\'{o}n de Newton}{12}{section.1.6}}
\newlabel{Newton}{{1.6}{12}{F\'{o}rmula de interpolaci\'{o}n de Newton}{section.1.6}{}}
\newlabel{newton1}{{1.6.1}{13}{}{theorem.1.6.1}{}}
\newlabel{newton2}{{1.12}{13}{F\'{o}rmula de interpolaci\'{o}n de Newton}{equation.1.6.12}{}}
\newlabel{formnewton1}{{1.6.2}{14}{F\'{o}rmula de Interpolaci\'{o}n de Newton}{theorem.1.6.2}{}}
\newlabel{formnwton2}{{1.13}{14}{F\'{o}rmula de Interpolaci\'{o}n de Newton}{equation.1.6.13}{}}
\newlabel{newton3}{{1.15}{15}{F\'{o}rmula de interpolaci\'{o}n de Newton}{equation.1.6.15}{}}
\newlabel{difdiv}{{1.20}{16}{F\'{o}rmula de interpolaci\'{o}n de Newton}{equation.1.6.20}{}}
\newlabel{errordifdiv}{{1.21}{17}{F\'{o}rmula de interpolaci\'{o}n de Newton}{equation.1.6.21}{}}
\@writefile{toc}{\contentsline {section}{\numberline {1.7}Polinomios de Hermite}{17}{section.1.7}}
\newlabel{hermite}{{1.7}{17}{Polinomios de Hermite}{section.1.7}{}}
\newlabel{condhermite}{{1.22}{18}{Polinomios de Hermite}{equation.1.7.22}{}}
\newlabel{errorHermite}{{1.27}{19}{Polinomios de Hermite}{equation.1.7.27}{}}
\newlabel{formerrorher}{{1.29}{20}{Polinomios de Hermite}{equation.1.7.29}{}}
\@setckpt{1-LicIvan_Cap1}{
\setcounter{page}{21}
\setcounter{equation}{30}
\setcounter{enumi}{3}
\setcounter{enumii}{0}
\setcounter{enumiii}{0}
\setcounter{enumiv}{0}
\setcounter{footnote}{1}
\setcounter{mpfootnote}{0}
\setcounter{part}{0}
\setcounter{chapter}{1}
\setcounter{section}{7}
\setcounter{subsection}{0}
\setcounter{subsubsection}{0}
\setcounter{paragraph}{0}
\setcounter{subparagraph}{0}
\setcounter{figure}{0}
\setcounter{table}{0}
\setcounter{parentequation}{0}
\setcounter{ContinuedFloat}{0}
\setcounter{KVtest}{0}
\setcounter{subfigure}{0}
\setcounter{subfigure@save}{0}
\setcounter{lofdepth}{1}
\setcounter{subtable}{0}
\setcounter{subtable@save}{0}
\setcounter{lotdepth}{1}
\setcounter{SC@C}{0}
\setcounter{Item}{3}
\setcounter{Hfootnote}{1}
\setcounter{bookmark@seq@number}{8}
\setcounter{lips@count}{0}
\setcounter{theorem}{0}
\setcounter{definition}{0}
\setcounter{example}{0}
\setcounter{lemma}{0}
\setcounter{corollary}{0}
\setcounter{property}{0}
\setcounter{proposition}{0}
\setcounter{note}{0}
\setcounter{observation}{0}
\setcounter{remark}{0}
\setcounter{problem}{0}
\setcounter{section@level}{0}
}
