\relax 
\providecommand\hyper@newdestlabel[2]{}
\citation{QuSa06}
\citation{QuSaSa00}
\@writefile{toc}{\contentsline {chapter}{\numberline {2}Interpolaci\'{o}n con wxMaxima}{21}{chapter.2}}
\@writefile{lof}{\addvspace {10\p@ }}
\@writefile{lot}{\addvspace {10\p@ }}
\@writefile{toc}{\contentsline {section}{\numberline {2.1}Introducci\'{o}n a wxMaxima}{21}{section.2.1}}
\@setckpt{2-LicIvanCap2}{
\setcounter{page}{22}
\setcounter{equation}{0}
\setcounter{enumi}{3}
\setcounter{enumii}{0}
\setcounter{enumiii}{0}
\setcounter{enumiv}{0}
\setcounter{footnote}{0}
\setcounter{mpfootnote}{0}
\setcounter{part}{0}
\setcounter{chapter}{2}
\setcounter{section}{1}
\setcounter{subsection}{0}
\setcounter{subsubsection}{0}
\setcounter{paragraph}{0}
\setcounter{subparagraph}{0}
\setcounter{figure}{0}
\setcounter{table}{0}
\setcounter{parentequation}{0}
\setcounter{ContinuedFloat}{0}
\setcounter{KVtest}{0}
\setcounter{subfigure}{0}
\setcounter{subfigure@save}{0}
\setcounter{lofdepth}{1}
\setcounter{subtable}{0}
\setcounter{subtable@save}{0}
\setcounter{lotdepth}{1}
\setcounter{SC@C}{0}
\setcounter{Item}{3}
\setcounter{Hfootnote}{1}
\setcounter{bookmark@seq@number}{10}
\setcounter{lips@count}{0}
\setcounter{theorem}{0}
\setcounter{definition}{0}
\setcounter{example}{0}
\setcounter{lemma}{0}
\setcounter{corollary}{0}
\setcounter{property}{0}
\setcounter{proposition}{0}
\setcounter{note}{0}
\setcounter{observation}{0}
\setcounter{remark}{0}
\setcounter{problem}{0}
\setcounter{section@level}{0}
}
